An Introduction to Data Analysis with R - 3 Data Wrangling
…
ℹ Use `spec()` to retrieve the full column specification for this data.
ℹ Specify the column types or set `show_col_types = FALSE` to quiet this message.

read_csv() read in CSV file as a data.frame, a special data structure in R. data.frame is constructed by vectors: Each column is a vector and each vector has the same length.

Let’s print surveys directly in the console.

surveys

# A tibble: 3,867 × 15
   caseid   age state_re…¹ resid…² birth…³ educa…⁴ employ wealth get_h…⁵ perso…⁶
    <dbl> <dbl> <chr>      <chr>     <dbl> <chr>   <chr>  <chr>  <chr>   <chr>  
 1      1    28 Region     Rural         1 Primary Agric… Third  Not a … By hus…
 2      2    39 Region     Rural         5 Primary Agric… Lowest Not a … Self   
 3      3    29 Region     Rural         3 Second… Sales  Lowest Not a … With h…
 4      4    30 Region     Rural         2 Primary Agric… Lowest Not a … By hus…
 5      5    28 Region     Rural         4 Primary Not w… Fourth Not a … Self   
 6      6    23 Region     Rural         1 Second… Agric… Fourth Not a … By hus…
 7      7    32 Region     Rural         4 Primary Not w… Lowest Not a … Self   
 8      8    32 Region     Rural         2 Primary Sales  Third  Not a … Self   
 9      9    46 Region     Rural         4 Primary Agric… Second Big pr… By hus…
10     10    31 Region     Rural         1 Primary Agric… Second Not a … By hus…
# … with 3,857 more rows, 5 more variables: get_help_not_go_alone <chr>,
#   get_help_money <chr>, get_help_distance_health_facility <chr>,
#   ancplace <chr>, tetanus_vacc <chr>, and abbreviated variable names
#   ¹​state_region, ²​residence, ³​birth_order_last_child, ⁴​education,
#   ⁵​get_help_permission, ⁶​person_decides_healthcare
…
mutate(): Create new columns

group_by() and summarize(): Create summary statistics on grouped data

arrange(): Sort results

count(): Count discrete values

3.4 Select columns

We can keep columns of a dataframe by name. The code below keep age, education, ancplace from surveys dataset.

select(surveys, age, education, ancplace)

# A tibble: 3,867 × 3
     age education ancplace                
   <dbl> <chr>     <chr>                   
 1    28 Primary   Home                    
 2    39 Primary   Home                    
 3    29 Secondary Public health facilities
 4    30 Primary   Home                    
 5    28 Primary   Public health facilities
 6    23 Secondary Home                    
 7    32 Primary   Public health facilities
 8    32 Primary   Public health facilities
 9    46 Primary   Public health facilities
10    31 Primary   None                    
# … with 3,857 more rows

We can also select columns by sequence number (index) of columns. Let’s say we would like to keep first, third, and fifth columns.

select(surveys, 1, 3, 5)

# A tibble: 3,867 × 3
   caseid state_region birth_order_last_child
    <dbl> <chr>                         <dbl>
 1      1 Region                            1
 2      2 Region                            5
 3      3 Region                            3
 4      4 Region                            2
 5      5 Region                            4
 6      6 Region                            1
 7      7 Region                            4
 8      8 Region                            2
 9      9 Region                            4
10     10 Region                            1
# … with 3,857 more rows
…
starts_with() : Starts with an exact prefix.

ends_with() : Ends with an exact suffix.

contains() : Contains a literal string.

matches() : Matches a regular expression.

num_range() : Matches a numerical range like x01, x02, x03.

For example, we can select columns that starts with get_help.

select(surveys, starts_with("get_help"))

# A tibble: 3,867 × 4
   get_help_permission get_help_not_go_alone get_help_money    get_help_distan…¹
   <chr>               <chr>                 <chr>             <chr>            
 1 Not a big problem   Not a big problem     Big problem       Not a big problem
 2 Not a big problem   Not a big problem     Big problem       Not a big problem
 3 Not a big problem   Big problem           Big problem       Big problem      
 4 Not a big problem   Not a big problem     Not a big problem Not a big problem
 5 Not a big problem   Not a big problem     Big problem       Big problem      
 6 Not a big problem   Not a big problem     Not a big problem Not a big problem
 7 Not a big problem   Big problem           Not a big problem Big problem      
 8 Not a big problem   Big problem           Not a big problem Not a big problem
 9 Big problem         Big problem           Big problem       Not a big problem
10 Not a big problem   Big problem           Not a big problem Not a big problem
# … with 3,857 more rows, and abbreviated variable name
#   ¹​get_help_distance_health_facility

What if we want to select columns that contains health in their names.

select(surveys, contains("health"))

# A tibble: 3,867 × 2
   person_decides_healthcare      get_help_distance_health_facility
   <chr>                          <chr>                            
 1 By husband, partner, or others Not a big problem                
 2 Self                           Not a big problem                
 3 With husband or partner        Big problem                      
 4 By husband, partner, or others Not a big problem                
 5 Self                           Big problem                      
 6 By husband, partner, or others Not a big problem                
 7 Self                           Big problem                      
 8 Self                           Not a big problem                
 9 By husband, partner, or others Not a big problem                
10 By husband, partner, or others Not a big problem                
# … with 3,857 more rows

We can combine the helper functions with other selection methods. Here, we select caseid, age, and columns that starts with get_help.

select(surveys, caseid, age, starts_with("get_help"))

# A tibble: 3,867 × 6
   caseid   age get_help_permission get_help_not_go_alone get_help_money get_h…¹
    <dbl> <dbl> <chr>               <chr>                 <chr>          <chr>  
 1      1    28 Not a big problem   Not a big problem     Big problem    Not a …
 2      2    39 Not a big problem   Not a big problem     Big problem    Not a …
 3      3    29 Not a big problem   Big problem           Big problem    Big pr…
 4      4    30 Not a big problem   Not a big problem     Not a big pro… Not a …
 5      5    28 Not a big problem   Not a big problem     Big problem    Big pr…
 6      6    23 Not a big problem   Not a big problem     Not a big pro… Not a …
 7      7    32 Not a big problem   Big problem           Not a big pro… Big pr…
 8      8    32 Not a big problem   Big problem           Not a big pro… Not a …
 9      9    46 Big problem         Big problem           Big problem    Not a …
10     10    31 Not a big problem   Big problem           Not a big pro… Not a …
# … with 3,857 more rows, and abbreviated variable name
#   ¹​get_help_distance_health_facility

Remove columns record_id and species_id from surveys dataset.

select(surveys, -age, -education, -ancplace)

# A tibble: 3,867 × 12
   caseid state_…¹ resid…² birth…³ employ wealth get_h…⁴ perso…⁵ get_h…⁶ get_h…⁷
    <dbl> <chr>    <chr>     <dbl> <chr>  <chr>  <chr>   <chr>   <chr>   <chr>  
 1      1 Region   Rural         1 Agric… Third  Not a … By hus… Not a … Big pr…
 2      2 Region   Rural         5 Agric… Lowest Not a … Self    Not a … Big pr…
 3      3 Region   Rural         3 Sales  Lowest Not a … With h… Big pr… Big pr…
 4      4 Region   Rural         2 Agric… Lowest Not a … By hus… Not a … Not a …
 5      5 Region   Rural         4 Not w… Fourth Not a … Self    Not a … Big pr…
 6      6 Region   Rural         1 Agric… Fourth Not a … By hus… Not a … Not a …
 7      7 Region   Rural         4 Not w… Lowest Not a … Self    Big pr… Not a …
 8      8 Region   Rural         2 Sales  Third  Not a … Self    Big pr… Not a …
 9      9 Region   Rural         4 Agric… Second Big pr… By hus… Big pr… Big pr…
10     10 Region   Rural         1 Agric… Second Not a … By hus… Big pr… Not a …
# … with 3,857 more rows, 2 more variables:
#   get_help_distance_health_facility <chr>, tetanus_vacc <chr>, and
#   abbreviated variable names ¹​state_region, ²​residence,
#   ³​birth_order_last_child, ⁴​get_help_permission, ⁵​person_decides_healthcare,
#   ⁶​get_help_not_go_alone, ⁷​get_help_money

3.4.1 Practice

Select all columns that does not start with get_help.

select(surveys, -starts_with("get_help"))

# A tibble: 3,867 × 11
   caseid   age state_re…¹ resid…² birth…³ educa…⁴ employ wealth perso…⁵ ancpl…⁶
    <dbl> <dbl> <chr>      <chr>     <dbl> <chr>   <chr>  <chr>  <chr>   <chr>  
 1      1    28 Region     Rural         1 Primary Agric… Third  By hus… Home   
 2      2    39 Region     Rural         5 Primary Agric… Lowest Self    Home   
 3      3    29 Region     Rural         3 Second… Sales  Lowest With h… Public…
 4      4    30 Region     Rural         2 Primary Agric… Lowest By hus… Home   
 5      5    28 Region     Rural         4 Primary Not w… Fourth Self    Public…
 6      6    23 Region     Rural         1 Second… Agric… Fourth By hus… Home   
 7      7    32 Region     Rural         4 Primary Not w… Lowest Self    Public…
 8      8    32 Region     Rural         2 Primary Sales  Third  Self    Public…
 9      9    46 Region     Rural         4 Primary Agric… Second By hus… Public…
10     10    31 Region     Rural         1 Primary Agric… Second By hus… None   
# … with 3,857 more rows, 1 more variable: tetanus_vacc <chr>, and abbreviated
#   variable names ¹​state_region, ²​residence, ³​birth_order_last_child,
#   ⁴​education, ⁵​person_decides_healthcare, ⁶​ancplace
…
This code selects rows of mothers residing in rural areas.

filter(surveys, residence == "Rural")

# A tibble: 2,986 × 15
   caseid   age state_re…¹ resid…² birth…³ educa…⁴ employ wealth get_h…⁵ perso…⁶
    <dbl> <dbl> <chr>      <chr>     <dbl> <chr>   <chr>  <chr>  <chr>   <chr>  
 1      1    28 Region     Rural         1 Primary Agric… Third  Not a … By hus…
 2      2    39 Region     Rural         5 Primary Agric… Lowest Not a … Self   
 3      3    29 Region     Rural         3 Second… Sales  Lowest Not a … With h…
 4      4    30 Region     Rural         2 Primary Agric… Lowest Not a … By hus…
 5      5    28 Region     Rural         4 Primary Not w… Fourth Not a … Self   
 6      6    23 Region     Rural         1 Second… Agric… Fourth Not a … By hus…
 7      7    32 Region     Rural         4 Primary Not w… Lowest Not a … Self   
 8      8    32 Region     Rural         2 Primary Sales  Third  Not a … Self   
 9      9    46 Region     Rural         4 Primary Agric… Second Big pr… By hus…
10     10    31 Region     Rural         1 Primary Agric… Second Not a … By hus…
# … with 2,976 more rows, 5 more variables: get_help_not_go_alone <chr>,
#   get_help_money <chr>, get_help_distance_health_facility <chr>,
#   ancplace <chr>, tetanus_vacc <chr>, and abbreviated variable names
#   ¹​state_region, ²​residence, ³​birth_order_last_child, ⁴​education,
#   ⁵​get_help_permission, ⁶​person_decides_healthcare

This code selects rows of mothers who completed primary school.

filter(surveys, education == "Primary")

# A tibble: 1,698 × 15
   caseid   age state_re…¹ resid…² birth…³ educa…⁴ employ wealth get_h…⁵ perso…⁶
    <dbl> <dbl> <chr>      <chr>     <dbl> <chr>   <chr>  <chr>  <chr>   <chr>  
 1      1    28 Region     Rural         1 Primary Agric… Third  Not a … By hus…
 2      2    39 Region     Rural         5 Primary Agric… Lowest Not a … Self   
 3      4    30 Region     Rural         2 Primary Agric… Lowest Not a … By hus…
 4      5    28 Region     Rural         4 Primary Not w… Fourth Not a … Self   
 5      7    32 Region     Rural         4 Primary Not w… Lowest Not a … Self   
 6      8    32 Region     Rural         2 Primary Sales  Third  Not a … Self   
 7      9    46 Region     Rural         4 Primary Agric… Second Big pr… By hus…
 8     10    31 Region     Rural         1 Primary Agric… Second Not a … By hus…
 9     11    39 Region     Rural         3 Primary Agric… Third  Not a … By hus…
10     13    42 Region     Rural         2 Primary Not w… Lowest Not a … Self   
# … with 1,688 more rows, 5 more variables: get_help_not_go_alone <chr>,
#   get_help_money <chr>, get_help_distance_health_facility <chr>,
#   ancplace <chr>, tetanus_vacc <chr>, and abbreviated variable names
#   ¹​state_region, ²​residence, ³​birth_order_last_child, ⁴​education,
#   ⁵​get_help_permission, ⁶​person_decides_healthcare
…
The code below select rows within age range of 18 and 22.

filter(surveys, age >= 18 & age <= 22)

# A tibble: 415 × 15
   caseid   age state_re…¹ resid…² birth…³ educa…⁴ employ wealth get_h…⁵ perso…⁶
    <dbl> <dbl> <chr>      <chr>     <dbl> <chr>   <chr>  <chr>  <chr>   <chr>  
 1     19    19 State      Rural         1 Second… Manual Lowest Not a … By hus…
 2     27    21 State      Urban         3 Primary Not w… Lowest Not a … Self   
 3     38    20 Region     Rural         2 Primary Not w… Lowest Not a … With h…
 4     45    21 State      Rural         1 Primary Manual Fourth Not a … Self   
 5     54    21 Region     Rural         1 More t… Not w… Highe… Not a … By hus…
 6     58    22 Region     Rural         2 Primary Not w… Lowest Not a … Self   
 7     69    20 State      Rural         1 Second… Not w… Third  Not a … Self   
 8     70    19 State      Rural         1 Second… Manual Fourth Not a … Self   
 9    117    22 State      Rural         2 No edu… Manual Second Not a … By hus…
10    122    19 State      Rural         2 No edu… Not w… Second Not a … With h…
# … with 405 more rows, 5 more variables: get_help_not_go_alone <chr>,
#   get_help_money <chr>, get_help_distance_health_facility <chr>,
#   ancplace <chr>, tetanus_vacc <chr>, and abbreviated variable names
#   ¹​state_region, ²​residence, ³​birth_order_last_child, ⁴​education,
#   ⁵​get_help_permission, ⁶​person_decides_healthcare

The code below select rows with mothers younger than 17 or older than 45.

filter(surveys, age < 17 | age > 45)

# A tibble: 79 × 15
   caseid   age state_re…¹ resid…² birth…³ educa…⁴ employ wealth get_h…⁵ perso…⁶
    <dbl> <dbl> <chr>      <chr>     <dbl> <chr>   <chr>  <chr>  <chr>   <chr>  
 1      9    46 Region     Rural         4 Primary Agric… Second Big pr… By hus…
 2     23    46 State      Rural         7 Second… Manual Fourth Not a … With h…
 3     61    16 Region     Rural         1 Second… Manual Lowest Not a … With h…
 4     80    46 State      Rural         8 Primary Not w… Second Not a … With h…
 5     93    46 Region     Rural         6 Primary Manual Highe… Not a … With h…
 6    104    46 State      Rural         4 Primary Sales  Third  Not a … Self   
 7    130    47 State      Urban         3 More t… Other  Fourth Not a … <NA>   
 8    220    46 Region     Rural         8 No edu… Agric… Third  Not a … Self   
 9    310    46 State      Rural         8 Primary Not w… Third  Not a … By hus…
10    315    46 State      Rural         9 Primary Manual Highe… Not a … By hus…
# … with 69 more rows, 5 more variables: get_help_not_go_alone <chr>,
#   get_help_money <chr>, get_help_distance_health_facility <chr>,
#   ancplace <chr>, tetanus_vacc <chr>, and abbreviated variable names
#   ¹​state_region, ²​residence, ³​birth_order_last_child, ⁴​education,
#   ⁵​get_help_permission, ⁶​person_decides_healthcare

3.5.1 Practice

Filter rows with mothers residing in rural areas with highest education of primary school who gave birth at a public health facility.

filter(surveys, education == "Primary" & residence == "Rural" & ancplace == "Public health facilities")

# A tibble: 857 × 15
   caseid   age state_re…¹ resid…² birth…³ educa…⁴ employ wealth get_h…⁵ perso…⁶
    <dbl> <dbl> <chr>      <chr>     <dbl> <chr>   <chr>  <chr>  <chr>   <chr>  
 1      5    28 Region     Rural         4 Primary Not w… Fourth Not a … Self   
 2      7    32 Region     Rural         4 Primary Not w… Lowest Not a … Self   
 3      8    32 Region     Rural         2 Primary Sales  Third  Not a … Self   
 4      9    46 Region     Rural         4 Primary Agric… Second Big pr… By hus…
 5     20    45 State      Rural         8 Primary Not w… Third  Not a … Self   
 6     21    37 State      Rural         6 Primary Not w… Lowest Not a … Self   
 7     34    32 Region     Rural         3 Primary Sales  Highe… Not a … With h…
 8     35    38 Region     Rural         2 Primary Sales  Fourth Not a … Self   
 9     38    20 Region     Rural         2 Primary Not w… Lowest Not a … With h…
10     39    28 State      Rural         2 Primary Manual Second Big pr… With h…
# … with 847 more rows, 5 more variables: get_help_not_go_alone <chr>,
#   get_help_money <chr>, get_help_distance_health_facility <chr>,
#   ancplace <chr>, tetanus_vacc <chr>, and abbreviated variable names
#   ¹​state_region, ²​residence, ³​birth_order_last_child, ⁴​education,
#   ⁵​get_help_permission, ⁶​person_decides_healthcare
…
3.6.1 Practice

Using pipes, select the surveys data to include mothers gave birth to their last child at home and retain only columns age, ancplace, and tetanus_vacc

surveys |> 
  filter(ancplace == "Home") |> 
  select(age, ancplace, tetanus_vacc)

# A tibble: 583 × 3
     age ancplace tetanus_vacc
   <dbl> <chr>    <chr>       
 1    28 Home     Vaccinated  
 2    39 Home     Vaccinated  
 3    30 Home     Vaccinated  
 4    23 Home     Vaccinated  
 5    39 Home     Unvaccinated
 6    42 Home     Vaccinated  
 7    44 Home     Unvaccinated
 8    21 Home     Vaccinated  
 9    36 Home     Unvaccinated
10    27 Home     Vaccinated  
# … with 573 more rows

3.7 Create new columns

Let’s create a new column that has double the age of mothers. Then, select the original and the newly created column.

surveys |> 
  mutate(age2 = age * 2) |> 
  select(age, age2)

# A tibble: 3,867 × 2
     age  age2
   <dbl> <dbl>
 1    28    56
 2    39    78
 3    29    58
 4    30    60
 5    28    56
 6    23    46
 7    32    64
 8    32    64
 9    46    92
10    31    62
# … with 3,857 more rows
…
